{
  "alerts": [
    {
      "id": 0,
      "level": "WARN",
      "description": "(Directory Browsing - Active/release)"
    },
    {
      "id": 10010,
      "level": "WARN",
      "description": "(Cookie No HttpOnly Flag - Passive/release)"
    },
    {
      "id": 10011,
      "level": "WARN",
      "description": "(Cookie Without Secure Flag - Passive/release)"
    },
    {
      "id": 10012,
      "level": "WARN",
      "description": "(Password Autocomplete in Browser - Passive/release)"
    },
    {
      "id": 10015,
      "level": "WARN",
      "description": "(Incomplete or No Cache-control and Pragma HTTP Header Set - Passive/release)"
    },
    {
      "id": 10016,
      "level": "WARN",
      "description": "(Web Browser XSS Protection Not Enabled - Passive/release)"
    },
    {
      "id": 10017,
      "level": "WARN",
      "description": "(Cross-Domain JavaScript Source File Inclusion - Passive/release)"
    },
    {
      "id": 10019,
      "level": "WARN",
      "description": "(Content-Type Header Missing - Passive/release)"
    },
    {
      "id": 10020,
      "level": "WARN",
      "description": "(X-Frame-Options Header Scanner - Passive/release)"
    },
    {
      "id": 10021,
      "level": "WARN",
      "description": "(X-Content-Type-Options Header Missing - Passive/release)"
    },
    {
      "id": 10023,
      "level": "WARN",
      "description": "(Information Disclosure - Debug Error Messages - Passive/beta)"
    },
    {
      "id": 10024,
      "level": "WARN",
      "description": "(Information Disclosure - Sensitive Informations in URL - Passive/beta)"
    },
    {
      "id": 10025,
      "level": "WARN",
      "description": "(Information Disclosure - Sensitive Information in HTTP Referrer Header - Passive/beta)"
    },
    {
      "id": 10026,
      "level": "WARN",
      "description": "(HTTP Parameter Override - Passive/beta)"
    },
    {
      "id": 10027,
      "level": "WARN",
      "description": "(Information Disclosure - Suspicious Comments - Passive/beta)"
    },
    {
      "id": 10032,
      "level": "WARN",
      "description": "(Viewstate Scanner - Passive/beta)"
    },
    {
      "id": 10040,
      "level": "WARN",
      "description": "(Secure Pages Include Mixed Content - Passive/release)"
    },
    {
      "id": 10045,
      "level": "WARN",
      "description": "(Source Code Disclosure - /WEB-INF folder - Active/beta)"
    },
    {
      "id": 10048,
      "level": "WARN",
      "description": "(Remote Code Execution - Shell Shock - Active/beta)"
    },
    {
      "id": 10095,
      "level": "WARN",
      "description": "(Backup File Disclosure - Active/beta)"
    },
    {
      "id": 10105,
      "level": "WARN",
      "description": "(Weak Authentication Method - Passive/beta)"
    },
    {
      "id": 10202,
      "level": "WARN",
      "description": "(Absence of Anti-CSRF Tokens - Passive/beta)"
    },
    {
      "id": 2,
      "level": "WARN",
      "description": "(Private IP Disclosure - Passive/release)"
    },
    {
      "id": 20012,
      "level": "WARN",
      "description": "(Anti CSRF Tokens Scanner - Active/beta)"
    },
    {
      "id": 20014,
      "level": "WARN",
      "description": "(HTTP Parameter Pollution scanner - Active/beta)"
    },
    {
      "id": 20015,
      "level": "WARN",
      "description": "(Heartbleed OpenSSL Vulnerability - Active/beta)"
    },
    {
      "id": 20016,
      "level": "WARN",
      "description": "(Cross-Domain Misconfiguration - Active/beta)"
    },
    {
      "id": 20017,
      "level": "WARN",
      "description": "(Source Code Disclosure - CVE-2012-1823 - Active/beta)"
    },
    {
      "id": 20018,
      "level": "WARN",
      "description": "(Remote Code Execution - CVE-2012-1823 - Active/beta)"
    },
    {
      "id": 20019,
      "level": "WARN",
      "description": "(External Redirect - Active/release)"
    },
    {
      "id": 3,
      "level": "WARN",
      "description": "(Session ID in URL Rewrite - Passive/release)"
    },
    {
      "id": 30001,
      "level": "WARN",
      "description": "(Buffer Overflow - Active/release)"
    },
    {
      "id": 30002,
      "level": "WARN",
      "description": "(Format String Error - Active/release)"
    },
    {
      "id": 30003,
      "level": "WARN",
      "description": "(Integer Overflow Error - Active/beta)"
    },
    {
      "id": 40003,
      "level": "WARN",
      "description": "(CRLF Injection - Active/release)"
    },
    {
      "id": 40008,
      "level": "WARN",
      "description": "(Parameter Tampering - Active/release)"
    },
    {
      "id": 40009,
      "level": "WARN",
      "description": "(Server Side Include - Active/release)"
    },
    {
      "id": 40012,
      "level": "WARN",
      "description": "(Cross Site Scripting (Reflected) - Active/release)"
    },
    {
      "id": 40013,
      "level": "WARN",
      "description": "(Session Fixation - Active/beta)"
    },
    {
      "id": 40014,
      "level": "WARN",
      "description": "(Cross Site Scripting (Persistent) - Active/release)"
    },
    {
      "id": 40016,
      "level": "WARN",
      "description": "(Cross Site Scripting (Persistent) - Prime - Active/release)"
    },
    {
      "id": 40017,
      "level": "WARN",
      "description": "(Cross Site Scripting (Persistent) - Spider - Active/release)"
    },
    {
      "id": 40018,
      "level": "WARN",
      "description": "(SQL Injection - Active/release)"
    },
    {
      "id": 40019,
      "level": "WARN",
      "description": "(SQL Injection - MySQL - Active/beta)"
    },
    {
      "id": 40020,
      "level": "WARN",
      "description": "(SQL Injection - Hypersonic SQL - Active/beta)"
    },
    {
      "id": 40021,
      "level": "WARN",
      "description": "(SQL Injection - Oracle - Active/beta)"
    },
    {
      "id": 40022,
      "level": "WARN",
      "description": "(SQL Injection - PostgreSQL - Active/beta)"
    },
    {
      "id": 40023,
      "level": "WARN",
      "description": "(Possible Username Enumeration - Active/beta)"
    },
    {
      "id": 42,
      "level": "WARN",
      "description": "(Source Code Disclosure - SVN - Active/beta)"
    },
    {
      "id": 50000,
      "level": "WARN",
      "description": "(Script Active Scan Rules - Active/release)"
    },
    {
      "id": 50001,
      "level": "WARN",
      "description": "(Script Passive Scan Rules - Passive/release)"
    },
    {
      "id": 6,
      "level": "WARN",
      "description": "(Path Traversal - Active/release)"
    },
    {
      "id": 7,
      "level": "WARN",
      "description": "(Remote File Inclusion - Active/release)"
    },
    {
      "id": 90001,
      "level": "WARN",
      "description": "(Insecure JSF ViewState - Passive/beta)"
    },
    {
      "id": 90011,
      "level": "WARN",
      "description": "(Charset Mismatch - Passive/beta)"
    },
    {
      "id": 90019,
      "level": "WARN",
      "description": "(Server Side Code Injection - Active/release)"
    },
    {
      "id": 90020,
      "level": "WARN",
      "description": "(Remote OS Command Injection - Active/release)"
    },
    {
      "id": 90021,
      "level": "WARN",
      "description": "(XPath Injection - Active/beta)"
    },
    {
      "id": 90022,
      "level": "WARN",
      "description": "(Application Error Disclosure - Passive/release)"
    },
    {
      "id": 90023,
      "level": "WARN",
      "description": "(XML External Entity Attack - Active/beta)"
    },
    {
      "id": 90024,
      "level": "WARN",
      "description": "(Generic Padding Oracle - Active/beta)"
    },
    {
      "id": 90025,
      "level": "WARN",
      "description": "(Expression Language Injection - Active/beta)"
    },
    {
      "id": 90026,
      "level": "WARN",
      "description": "(SOAP Action Spoofing - Active/alpha)"
    },
    {
      "id": 90028,
      "level": "WARN",
      "description": "(Insecure HTTP Method - Active/beta)"
    },
    {
      "id": 90029,
      "level": "WARN",
      "description": "(SOAP XML Injection - Active/alpha)"
    },
    {
      "id": 90030,
      "level": "WARN",
      "description": "(WSDL File Passive Scanner - Passive/alpha)"
    },
    {
      "id": 90033,
      "level": "WARN",
      "description": "(Loosely Scoped Cookie - Passive/beta)"
    }
  ]
}